{
    "api_version": "0.2", 
    "pagination": {
        "count": 234, 
        "page": 1, 
        "pages": 12, 
        "per_page": 20
    }, 
    "results": [
        {
            "address": {
                "city": "GARY", 
                "expire_date": null, 
                "state": "IN", 
                "state_full": "Indiana", 
                "street_1": "P O BOX 330", 
                "zip": "46401"
            }, 
            "candidates": [
                {
                    "candidate_id": "H6IN01041", 
                    "designation": "A", 
                    "designation_full": "Authorized by a candidate", 
                    "election_years": [
                        1978
                    ], 
                    "expire_date": null, 
                    "link_date": "2007-10-12 13:38:33", 
                    "type": "H", 
                    "type_full": "House"
                }
            ], 
            "committee_id": "C00000752", 
            "description": {
                "expire_date": null, 
                "filing_frequency": "T", 
                "form_type": "F1Z", 
                "load_date": "2014-09-18 13:28:50", 
                "name": "RAY J. MADDEN FOR CONGRESS COMMITTEE"
            }, 
            "expire_date": null, 
            "form_type": "F1Z", 
            "load_date": "2014-09-18 13:28:50", 
            "name": "RAY J. MADDEN FOR CONGRESS COMMITTEE", 
            "treasurer": {
                "expire_date": null, 
                "name_full": "MR STEVE S. GERSACK, TREASURER"
            }
        }, 
        {
            "address": {
                "city": "JEFFERSON CITY", 
                "expire_date": "2014-09-18 00:00:00", 
                "state": "MO", 
                "state_full": "Missouri", 
                "street_1": "129A E HIGH ST", 
                "street_2": "BOX 1251", 
                "zip": "65101"
            }, 
            "committee_id": "C00008664", 
            "description": {
                "expire_date": "2014-09-18 00:00:00", 
                "filing_frequency": "Q", 
                "form_type": "F1", 
                "load_date": "2014-09-18 13:28:50", 
                "name": "MISSOURI REPUBLICAN STATE COMMITTEE", 
                "qualifying_date": "1975-01-01 00:00:00"
            }, 
            "expire_date": null, 
            "form_type": "F1", 
            "load_date": "2014-09-18 13:28:42", 
            "name": "MISSOURI REPUBLICAN STATE COMMITTEE", 
            "treasurer": {
                "expire_date": "2014-09-18 00:00:00", 
                "name_full": "MR JOE SWARTS, TREASURER"
            }
        }, 
        {
            "address": {
                "city": "VANCOUVER", 
                "expire_date": "2014-09-18 00:00:00", 
                "state": "WA", 
                "state_full": "Washington", 
                "street_1": "P.O. BOX 2216", 
                "zip": "98661"
            }, 
            "candidates": [
                {
                    "candidate_id": "H6WA04034", 
                    "designation": "P", 
                    "designation_full": "Principal campaign committee", 
                    "election_years": [
                        1976
                    ], 
                    "expire_date": null, 
                    "link_date": "2007-10-12 13:38:33", 
                    "type": "H", 
                    "type_full": "House"
                }
            ], 
            "committee_id": "C00000851", 
            "description": {
                "expire_date": "2014-09-18 00:00:00", 
                "filing_frequency": "Q", 
                "form_type": "F1", 
                "load_date": "2014-09-18 13:28:50", 
                "name": "MCCORMACK CONGRESSIONAL COMMITTEE"
            }, 
            "expire_date": null, 
            "form_type": "F1", 
            "load_date": "2014-09-18 13:28:42", 
            "name": "MCCORMACK CONGRESSIONAL COMMITTEE", 
            "status": {
                "designation": "P", 
                "designation_full": "Principal campaign committee", 
                "expire_date": null, 
                "load_date": "2014-09-18 13:28:46", 
                "receipt_date": "1976-03-15 00:00:00", 
                "type": "H", 
                "type_full": "House"
            }, 
            "treasurer": {
                "expire_date": "2014-09-18 00:00:00", 
                "name_full": "MR. JAMES W. CALLEY, TREAS."
            }
        }, 
        {
            "address": {
                "city": "LOS ANGELES", 
                "expire_date": "2014-09-18 00:00:00", 
                "state": "CA", 
                "state_full": "California", 
                "street_1": "720 WEST 8TH STREET", 
                "zip": "90017"
            }, 
            "committee_id": "C00008748", 
            "description": {
                "expire_date": "2014-09-18 00:00:00", 
                "filing_frequency": "Q", 
                "form_type": "F1", 
                "load_date": "2014-09-18 13:28:50", 
                "name": "PACIFIC LIGHTING POLITICAL ASSISTANCE COMMITTEE", 
                "party_full": "Democratic",
                "organization_type": "C", 
                "organization_type_full": "Corporation", 
                "qualifying_date": "1975-01-01 00:00:00"
            }, 
            "expire_date": null, 
            "form_type": "F1", 
            "load_date": "2014-09-18 13:28:42", 
            "name": "PACIFIC LIGHTING POLITICAL ASSISTANCE COMMITTEE", 
            "status": {
                "designation": "U", 
                "designation_full": "Unauthorized", 
                "expire_date": "2014-09-18 00:00:00", 
                "load_date": "2014-09-18 13:28:46", 
                "receipt_date": "1976-03-10 00:00:00",
                "type": "Q", 
                "type_full": "PAC - Qualified"
            }, 
            "treasurer": {
                "expire_date": "2014-09-18 00:00:00", 
                "name_full": "H. E. GOODENOW, TREASURER"
            }
        }, 
        {
            "address": {
                "city": "NEW YORK", 
                "expire_date": "2014-09-18 00:00:00", 
                "state": "NY", 
                "state_full": "New York", 
                "street_1": "1980 BROADWAY", 
                "street_2": "AMERICA 1980 BROADWAY", 
                "zip": "10023"
            }, 
            "committee_id": "C00008268", 
            "description": {
                "expire_date": "2014-09-18 00:00:00", 
                "filing_frequency": "M", 
                "form_type": "F1Z", 
                "load_date": "2014-09-18 13:28:50", 
                "name": "TRANSPORT WORKERS UNION POLITICAL CONTRIBUTIONS COMMITTEE", 
                "organization_type": "L", 
                "organization_type_full": "Labor Organization", 
                "qualifying_date": "1976-02-13 00:00:00"
            }, 
            "expire_date": null, 
            "form_type": "F1", 
            "load_date": "2014-09-18 13:28:42", 
            "name": "TRANSPORT WORKERS UNION POLITICAL CONTRIBUTIONS COMMITTEE", 
            "treasurer": {
                "expire_date": "2014-09-18 00:00:00", 
                "name_full": "WATTS, ROOSEVELT"
            }
        }, 
        {
            "address": {
                "city": "DETROIT", 
                "expire_date": "2014-09-18 00:00:00", 
                "state": "MI", 
                "state_full": "Michigan", 
                "street_1": "8000 EAST JEFFERSON AVE.", 
                "zip": "48214"
            }, 
            "committee_id": "C00002840", 
            "description": {
                "expire_date": "2014-09-18 00:00:00", 
                "filing_frequency": "M", 
                "form_type": "F1", 
                "load_date": "2014-09-18 13:28:50", 
                "name": "UAW VOLUNTARY COMMUNITY ACTION PROGRAM (UAW V CAP)", 
                "organization_type": "L", 
                "organization_type_full": "Labor Organization", 
                "qualifying_date": "1975-01-01 00:00:00"
            }, 
            "expire_date": null, 
            "form_type": "F1", 
            "load_date": "2014-09-18 13:28:42", 
            "name": "UAW VOLUNTARY COMMUNITY ACTION PROGRAM (UAW V CAP)", 
            "status": {
                "designation": "U", 
                "designation_full": "Unauthorized", 
                "expire_date": "2014-09-18 00:00:00", 
                "load_date": "2014-09-18 13:28:46", 
                "receipt_date": "1975-05-18 00:00:00", 
                "type": "Q", 
                "type_full": "PAC - Qualified"
            }, 
            "treasurer": {
                "expire_date": "2014-09-18 00:00:00", 
                "name_full": "DONALD MOLL"
            }
        }, 
        {
            "address": {
                "city": "WASHINGTON", 
                "expire_date": "2014-09-18 00:00:00", 
                "state": "DC", 
                "state_full": "District of Columbia", 
                "street_1": "445 SENATE OFFICE BUILDING", 
                "zip": "20510"
            }, 
            "committee_id": "C00027466", 
            "description": {
                "expire_date": "2014-09-18 00:00:00", 
                "filing_frequency": "Q", 
                "form_type": "F1Z", 
                "load_date": "2014-09-18 13:28:50", 
                "name": "NATIONAL REPUBLICAN SENATORIAL COMMITTEE *", 
                "qualifying_date": "1978-03-29 00:00:00"
            }, 
            "expire_date": null, 
            "form_type": "F1Z", 
            "load_date": "2014-09-18 13:28:42", 
            "name": "NATIONAL REPUBLICAN SENATORIAL COMMITTEE *", 
            "status": {
                "designation": "U", 
                "designation_full": "Unauthorized", 
                "expire_date": "2014-09-18 00:00:00", 
                "load_date": "2014-09-18 13:28:46", 
                "receipt_date": "1976-12-31 00:00:00", 
                "type": "Y", 
                "type_full": "Party - Qualified"
            }, 
            "treasurer": {
                "expire_date": "2014-09-18 00:00:00", 
                "name_full": "RODNEY A. SMITH"
            }
        }, 
        {
            "address": {
                "city": "WASHINGTON", 
                "expire_date": "2014-09-18 00:00:00", 
                "state": "DC", 
                "state_full": "District of Columbia", 
                "street_1": "101 CONSTITUTION AVE. N.W.", 
                "zip": "20001"
            }, 
            "committee_id": "C00001016", 
            "description": {
                "expire_date": "2014-09-18 00:00:00", 
                "filing_frequency": "Q", 
                "form_type": "F1", 
                "load_date": "2014-09-18 13:28:50", 
                "name": "CARPENTERS LEGISLATIVE IMPROVEMENT COMMITTEE", 
                "organization_type": "L", 
                "organization_type_full": "Labor Organization", 
                "qualifying_date": "1975-01-01 00:00:00"
            }, 
            "expire_date": null, 
            "form_type": "F1", 
            "load_date": "2014-09-18 13:28:42", 
            "name": "CARPENTERS LEGISLATIVE IMPROVEMENT COMMITTEE", 
            "status": {
                "designation": "U", 
                "designation_full": "Unauthorized", 
                "expire_date": "2014-09-18 00:00:00", 
                "load_date": "2014-09-18 13:28:46", 
                "receipt_date": "1975-03-04 00:00:00", 
                "type": "Q", 
                "type_full": "PAC - Qualified"
            }, 
            "treasurer": {
                "expire_date": "2014-09-18 00:00:00", 
                "name_full": "CHARLES E. NICHOLS"
            }
        }, 
        {
            "address": {
                "city": "HELENA", 
                "expire_date": "2014-09-18 00:00:00", 
                "state": "MT", 
                "state_full": "Montana", 
                "street_1": "BOX 802 349 NORTH LAST CHANCE", 
                "street_2": "GULCH", 
                "zip": "59601"
            }, 
            "committee_id": "C00010033", 
            "description": {
                "expire_date": "2014-09-18 00:00:00", 
                "filing_frequency": "Q", 
                "form_type": "F1", 
                "load_date": "2014-09-18 13:28:50", 
                "name": "MONTANA STATE DEMOCRATIC CENTRAL COMMITTEE", 
                "qualifying_date": "1975-01-01 00:00:00"
            }, 
            "expire_date": null, 
            "form_type": "F1", 
            "load_date": "2014-09-18 13:28:42", 
            "name": "MONTANA STATE DEMOCRATIC CENTRAL COMMITTEE", 
            "status": {
                "designation": "U", 
                "designation_full": "Unauthorized", 
                "expire_date": null, 
                "load_date": "2014-09-18 13:28:46", 
                "receipt_date": "1976-07-10 00:00:00", 
                "type": "Y", 
                "type_full": "Party - Qualified"
            }, 
            "treasurer": {
                "expire_date": "2014-09-18 00:00:00", 
                "name_full": "MS EVELYN NIKOLAISON, TREASURER"
            }
        }, 
        {
            "address": {
                "city": "WASHINGTON", 
                "expire_date": "2014-09-18 00:00:00", 
                "state": "DC", 
                "state_full": "District of Columbia", 
                "street_1": "1925 K ST. N.W.", 
                "zip": "20006"
            }, 
            "committee_id": "C00002089", 
            "description": {
                "expire_date": "2014-09-18 00:00:00", 
                "filing_frequency": "M", 
                "form_type": "F1", 
                "load_date": "2014-09-18 13:28:50", 
                "name": "CWA-COPE POLITICAL CONTRIBUTIONS COMMITTEE", 
                "organization_type": "L", 
                "organization_type_full": "Labor Organization", 
                "qualifying_date": "1975-01-01 00:00:00"
            }, 
            "expire_date": null, 
            "form_type": "F1", 
            "load_date": "2014-09-18 13:28:42", 
            "name": "CWA-COPE POLITICAL CONTRIBUTIONS COMMITTEE", 
            "status": {
                "designation": "U", 
                "designation_full": "Unauthorized", 
                "expire_date": "2014-09-18 00:00:00", 
                "load_date": "2014-09-18 13:28:46", 
                "receipt_date": "1975-03-20 00:00:00", 
                "type": "Q", 
                "type_full": "PAC - Qualified"
            }, 
            "treasurer": {
                "expire_date": "2014-09-18 00:00:00", 
                "name_full": "LOUIS B. KNECHT, TREASURER"
            }
        }, 
        {
            "address": {
                "city": "MINNEAPOLIS", 
                "expire_date": "2014-09-18 00:00:00", 
                "state": "MN", 
                "state_full": "Minnesota", 
                "street_1": "614 MCKINLEY PLACE", 
                "zip": "55413"
            }, 
            "committee_id": "C00009423", 
            "description": {
                "expire_date": "2014-09-18 00:00:00", 
                "filing_frequency": "Q", 
                "form_type": "F1", 
                "load_date": "2014-09-18 13:28:50", 
                "name": "MIDWEST POLITICAL ACTION COOPERATIVE TRUST (MPACT)", 
                "organization_type": "C", 
                "organization_type_full": "Corporation", 
                "qualifying_date": "1977-03-01 00:00:00"
            }, 
            "expire_date": null, 
            "form_type": "F1", 
            "load_date": "2014-09-18 13:28:42", 
            "name": "MIDWEST POLITICAL ACTION COOPERATIVE TRUST (MPACT)", 
            "status": {
                "designation": "U", 
                "designation_full": "Unauthorized", 
                "expire_date": "2014-09-18 00:00:00", 
                "load_date": "2014-09-18 13:28:46", 
                "receipt_date": "1975-10-14 00:00:00", 
                "type": "Q", 
                "type_full": "PAC - Qualified"
            }, 
            "treasurer": {
                "expire_date": "2014-09-18 00:00:00", 
                "name_full": "V.L. MOORE"
            }
        }, 
        {
            "address": {
                "city": "HAMMOND", 
                "expire_date": null, 
                "state": "IN", 
                "state_full": "Indiana", 
                "street_1": "7207 CAROLINA", 
                "zip": "46323"
            }, 
            "candidates": [
                {
                    "candidate_id": "H6IN01041", 
                    "designation": "A", 
                    "designation_full": "Authorized by a candidate", 
                    "election_years": [
                        1978
                    ], 
                    "expire_date": null, 
                    "link_date": "2007-10-12 13:38:33", 
                    "type": "H", 
                    "type_full": "House"
                }
            ], 
            "committee_id": "C00006908", 
            "description": {
                "expire_date": null, 
                "filing_frequency": "T", 
                "form_type": "F1Z", 
                "load_date": "2014-09-18 13:28:50", 
                "name": "MADDEN IN ,72 COMMITTEE"
            }, 
            "expire_date": null, 
            "form_type": "F1Z", 
            "load_date": "2014-09-18 13:28:50", 
            "name": "MADDEN IN ,72 COMMITTEE", 
            "treasurer": {
                "expire_date": null, 
                "name_full": "KERMIT RAU, TREASURER"
            }
        }, 
        {
            "address": {
                "city": "MASPETH", 
                "expire_date": "2014-09-18 00:00:00", 
                "state": "NY", 
                "state_full": "New York", 
                "street_1": "C/O STRUCTURAL PROCESSING", 
                "street_2": "CORPORATION 59 30 56TH ROAD", 
                "zip": "11378"
            }, 
            "candidates": [
                {
                    "candidate_id": "H6NY09012", 
                    "designation": "P", 
                    "designation_full": "Principal campaign committee", 
                    "election_years": [
                        1976
                    ], 
                    "expire_date": null, 
                    "link_date": "2007-10-12 13:38:33", 
                    "type": "H", 
                    "type_full": "House"
                }
            ], 
            "committee_id": "C00004721", 
            "description": {
                "expire_date": "2014-09-18 00:00:00", 
                "filing_frequency": "Q", 
                "form_type": "F1", 
                "load_date": "2014-09-18 13:28:50", 
                "name": "DELANEY COMMITTEE FOR CONGRESS"
            }, 
            "expire_date": null, 
            "form_type": "F1", 
            "load_date": "2014-09-18 13:28:42", 
            "name": "DELANEY COMMITTEE FOR CONGRESS", 
            "treasurer": {
                "expire_date": "2014-09-18 00:00:00", 
                "name_full": "ARTHUR ROSEBLATT"
            }
        }, 
        {
            "address": {
                "city": "WASHINGTON", 
                "expire_date": "2014-09-18 00:00:00", 
                "state": "DC", 
                "state_full": "District of Columbia", 
                "street_1": "1750 NEW YORK AVE. NW", 
                "street_2": "UNITED UNIONS BLDG. SUITE 400", 
                "zip": "20006"
            }, 
            "committee_id": "C00027359", 
            "description": {
                "expire_date": "2014-09-18 00:00:00", 
                "filing_frequency": "T", 
                "form_type": "F1", 
                "load_date": "2014-09-18 13:28:50", 
                "name": "IRONWORKERS POLITICAL ACTION LEAGUE", 
                "organization_type": "L", 
                "organization_type_full": "Labor Organization", 
                "qualifying_date": "1975-01-01 00:00:00"
            }, 
            "expire_date": null, 
            "form_type": "F1", 
            "load_date": "2014-09-18 13:28:42", 
            "name": "IRONWORKERS POLITICAL ACTION LEAGUE", 
            "treasurer": {
                "expire_date": "2014-09-18 00:00:00", 
                "name_full": "JOHN MCKEAN"
            }
        }, 
        {
            "address": {
                "city": "ST. PAUL", 
                "expire_date": null, 
                "state": "MN", 
                "state_full": "Minnesota", 
                "street_1": "1735 PRINCETON AVENUE", 
                "zip": "55105"
            }, 
            "candidates": [
                {
                    "candidate_id": "P60000510", 
                    "designation": "A", 
                    "designation_full": "Authorized by a candidate", 
                    "election_years": [
                        1976
                    ], 
                    "expire_date": null, 
                    "link_date": "2007-10-12 13:38:33", 
                    "type": "P", 
                    "type_full": "Presidential"
                }
            ], 
            "committee_id": "C00032029", 
            "description": {
                "expire_date": null, 
                "filing_frequency": "T", 
                "form_type": "F1Z", 
                "load_date": "2014-09-18 13:28:50", 
                "name": "MONDALE COMMITTEE, THE"
            }, 
            "expire_date": null, 
            "form_type": "F1", 
            "load_date": "2014-09-18 13:28:50", 
            "name": "MONDALE COMMITTEE, THE", 
            "treasurer": {
                "expire_date": null, 
                "name_full": "JOHN D. FRENCH"
            }
        }, 
        {
            "address": {
                "city": "LINCOLN", 
                "expire_date": "2014-09-18 00:00:00", 
                "state": "NE", 
                "state_full": "Nebraska", 
                "street_1": "212 ANDERSON  BLDG.", 
                "zip": "68508"
            }, 
            "committee_id": "C00032334", 
            "description": {
                "expire_date": "2014-09-18 00:00:00", 
                "filing_frequency": "Q", 
                "form_type": "F1", 
                "load_date": "2014-09-18 13:28:50", 
                "name": "NEBRASKA REPUBLICAN FEDERAL CAMPAIGN COMMITTEE"
            }, 
            "expire_date": null, 
            "form_type": "F1", 
            "load_date": "2014-09-18 13:28:42", 
            "name": "NEBRASKA REPUBLICAN FEDERAL CAMPAIGN COMMITTEE", 
            "status": {
                "designation": "U", 
                "designation_full": "Unauthorized", 
                "expire_date": "2014-09-18 00:00:00", 
                "load_date": "2014-09-18 13:28:46", 
                "receipt_date": "1976-05-25 00:00:00", 
                "type": "X", 
                "type_full": "Party - Nonqualified"
            }, 
            "treasurer": {
                "expire_date": "2014-09-18 00:00:00", 
                "name_full": "DALE L. YOUNG"
            }
        }, 
        {
            "address": {
                "city": "TOPEKA", 
                "expire_date": "2014-09-18 00:00:00", 
                "state": "KS", 
                "state_full": "Kansas", 
                "street_1": "HOLIDAY INN DOWNTOWN", 
                "zip": "66601"
            }, 
            "committee_id": "C00019380", 
            "description": {
                "expire_date": "2014-09-18 00:00:00", 
                "filing_frequency": "Q", 
                "form_type": "F1Z", 
                "load_date": "2014-09-18 13:28:50", 
                "name": "KANSAS STATE DEMOCRATIC COMMITTEE", 
                "qualifying_date": "1975-01-01 00:00:00"
            }, 
            "expire_date": null, 
            "form_type": "F1Z", 
            "load_date": "2014-09-18 13:28:42", 
            "name": "KANSAS STATE DEMOCRATIC COMMITTEE", 
            "status": {
                "designation": "U", 
                "designation_full": "Unauthorized", 
                "expire_date": null, 
                "load_date": "2014-09-18 13:28:46", 
                "receipt_date": "1976-12-31 00:00:00", 
                "type": "Y", 
                "type_full": "Party - Qualified"
            }, 
            "treasurer": {
                "expire_date": "2014-09-18 00:00:00", 
                "name_full": "DON CARLILE"
            }
        }, 
        {
            "address": {
                "city": "DETROIT", 
                "expire_date": "2014-09-18 00:00:00", 
                "state": "MI", 
                "state_full": "Michigan", 
                "street_1": "1535 E. LAFAYETTE", 
                "zip": "48207"
            }, 
            "committee_id": "C00031054", 
            "description": {
                "expire_date": "2014-09-18 00:00:00", 
                "filing_frequency": "Q", 
                "form_type": "F1", 
                "load_date": "2014-09-18 13:28:50", 
                "name": "DEMOCRATIC CAMPAIGN COMMITTEE", 
                "qualifying_date": "1976-03-26 00:00:00"
            }, 
            "expire_date": null, 
            "form_type": "F1", 
            "load_date": "2014-09-18 13:28:42", 
            "name": "DEMOCRATIC CAMPAIGN COMMITTEE", 
            "treasurer": {
                "expire_date": "2014-09-18 00:00:00", 
                "name_full": "MORLEY A. WINOGRAD"
            }
        }, 
        {
            "address": {
                "city": "HOUSTON", 
                "expire_date": null, 
                "state": "TX", 
                "state_full": "Texas", 
                "street_1": "1500 HOUSTON CLUB BLDG.", 
                "zip": "77002"
            }, 
            "committee_id": "C00031286", 
            "description": {
                "expire_date": null, 
                "filing_frequency": "T", 
                "form_type": "F1", 
                "load_date": "2014-09-18 13:28:50", 
                "name": "BENTSEN COMMITTEE FUND"
            }, 
            "expire_date": null, 
            "form_type": "F1", 
            "load_date": "2014-09-18 13:28:50", 
            "name": "BENTSEN COMMITTEE FUND", 
            "status": {
                "designation": "A", 
                "designation_full": "Authorized by a candidate", 
                "expire_date": null, 
                "load_date": "2014-09-18 13:28:46", 
                "receipt_date": "1975-01-01 00:00:00", 
                "type": "P", 
                "type_full": "Presidential"
            }, 
            "treasurer": {
                "expire_date": null, 
                "name_full": "J. S. BLANTON (TREA)"
            }
        }, 
        {
            "address": {
                "city": "DETROIT", 
                "expire_date": null, 
                "state": "MI", 
                "state_full": "Michigan", 
                "street_1": "1301 W. LAFAYETTE", 
                "zip": "48226"
            }, 
            "candidates": [
                {
                    "candidate_id": "H6MI00103", 
                    "designation": "P", 
                    "designation_full": "Principal campaign committee", 
                    "election_years": [
                        1976
                    ], 
                    "expire_date": null, 
                    "link_date": "2007-10-12 13:38:33", 
                    "type": "H", 
                    "type_full": "House"
                }
            ], 
            "committee_id": "C00059360", 
            "description": {
                "expire_date": null, 
                "filing_frequency": "T", 
                "form_type": "F1", 
                "load_date": "2014-09-18 13:28:50", 
                "name": "COMMITTEE TO ELECT DAVID M. HILTY"
            }, 
            "expire_date": null, 
            "form_type": "F1", 
            "load_date": "2014-09-18 13:28:50", 
            "name": "COMMITTEE TO ELECT DAVID M. HILTY", 
            "status": {
                "designation": "P", 
                "designation_full": "Principal campaign committee", 
                "expire_date": null, 
                "load_date": "2014-09-18 13:28:46", 
                "receipt_date": "1976-08-06 00:00:00", 
                "type": "H", 
                "type_full": "House"
            }, 
            "treasurer": {
                "expire_date": null, 
                "name_full": "JOHN BRADFIELD"
            }
        }
    ]
}
